{
  "type": "dashboard",
  "label": {
    "text": "Real-time Dashboard"
  },
  "rows": [
    {
      "label": "Right now",
      "display": true,
      "class": "row-y100",
      "widgets": [
        {
          "module": "agent.status",
          "settings": {
            "push": false,
              "queues": ["eb310e930ece42068176f3c5deee7862"]
          }
        },
        {
          "module": "call.status",
          "settings": {
            "type": "inbound",
            "push": false,
              "queues": ["eb310e930ece42068176f3c5deee7862"]
          }
        },
        {
          "module": "call.status",
          "settings": {
            "type": "outbound",
            "push": false
          }
        }
      ]
    },
    {
      "class": "row-y400",
      "display": true,
      "widgets": [
        {
          "type": "widget.group",
          "label": {
            "text": "Inbound DACH right now - Categorized"
          },
          "rows": [
            {
              "widgets": [
                {
                  "label": {
                    "text": "Inbound DACH right now - Categorized"
                  },
                  "type": "bar-chart",
                  "metric": "queues",
                  "dataUrl": "/metrics/queues?enabled=true",
                  "params": {
                    "enabled": true,
                    "queues": [
                      "eb310e930ece42068176f3c5deee7862"
                    ]
                  }
                }
              ]
            }
          ]
        },
        {
          "type": "widget.group",
          "label": {
            "text": "Current agent activity DACH"
          },
          "rows": [
            {
              "widgets": [
                {
                  "maxDisplayedItems": 10,
                  "type": "object-table-agents",
                  "tableData": "agents",
                  "tableHeader": "header-current-agent-activity",
                  "tableTemplate": "table-call-by-activity",
                  "dataUrl": "/agents",
                  "params": {
                      "tags": [
                        "DACH"
                    ]
                  }
                }
              ]
            }
          ]
        },
        {
          "type": "widget.group",
          "label": {
            "text": "Current call activity DACH"
          },
          "class": "activity-calls",
          "rows": [
            {
              "widgets": [
                {
                  "maxDisplayedItems": 10,
                  "type": "object-table-calls",
                  "tableData": "calls",
                  "tableHeader": "header-current-call-activity",
                  "tableTemplate": "table-call-by-agent",
                  "dataUrl": "/calls/reporting?filters.domain=external&filters.state=in_progress&filters.state=queued&filters.state=ringing&filters.state=bridged&filters.state=scheduled",
                  "params": {
                      "tags": [
                        "DACH"
                    ]
                  }
                }
              ]
            }
          ]
        }
      ]
    },
    {
      "class": "row-y300",
      "display": true,
      "widgets": [
        {
          "type": "widget.group",
          "label": {
            "text": "Today's call data DACH"
          },
          "rows": [
            {
              "widgets": [
                {
                  "label": {
                    "text": "Offered total"
                  },
                  "type": "widget.number",
                  "metric": "calls.total",
                  "params": {
                      "queues": [
                        "eb310e930ece42068176f3c5deee7862"
                    ]
                  }
                },
                {
                  "label": {
                    "text": "Offered in queue"
                  },
                  "type": "widget.number",
                  "metric": "queues.calls.total",
                  "params": {
                      "queues": [
                        "eb310e930ece42068176f3c5deee7862"
                    ]
                  }
                },
                {
                  "label": {
                    "text": "Accepted"
                  },
                  "type": "widget.number",
                  "metric": "calls.inbound.connected",
                  "params": {
                      "queues": [
                        "eb310e930ece42068176f3c5deee7862"
                    ]
                  }
                },
                {
                  "label": {
                    "text": "Missed in queue"
                  },
                  "type": "widget.number",
                  "metric": "calls.inbound.missed.queued",
                  "params": {
                      "queues": [
                        "eb310e930ece42068176f3c5deee7862"
                    ]
                  }
                },
                {
                  "label": {
                    "text": "Missed total"
                  },
                  "type": "widget.number",
                  "metric": "calls.inbound.missed",
                  "params": {
                      "queues": [
                        "eb310e930ece42068176f3c5deee7862"
                    ]
                  }
                }
              ]
            }
          ]
        },
        {
          "type": "widget.group",
          "label": {
            "text": "Wait time / Abandon rate DACH"
          },
          "rows": [
            {
              "widgets": [
                {
                  "label": {
                    "text": "Avg. wait time"
                  },
                  "type": "widget.msToS",
                  "metric": "queues.wait-time.avg",
                  "params": {
                    "queues": [
                      "eb310e930ece42068176f3c5deee7862"
                  ],
                    "bridgedOnly": false
                  }
                },
                {
                  "label": {
                    "text": "Longest waiting call"
                  },
                  "type": "widget.sToMMSS",
                  "metric": "queues.calls.waiting.total",
                  "params": {
                      "queues": [
                        "eb310e930ece42068176f3c5deee7862"
                    ]
                  }
                },
                {
                  "label": {
                    "text": "Abandon rate"
                  },
                  "type": "widget.percentage",
                  "metric": "abandon.value",
                  "params": {
                      "queues": [
                        "eb310e930ece42068176f3c5deee7862"
                    ]
                  }
                }
              ]
            }
          ]
        },
        {
          "type": "widget.group",
          "label": {
            "text": "In-call averages DACH"
          },
          "rows": [
            {
              "display": true,
              "class": "row-y100",
              "widgets": [
                {
                  "label": {
                    "text": "AHT"
                  },
                  "type": "widget.msToS",
                  "metric": "queues.handle-time.avg",
                  "params": {
                      "queues": [
                        "eb310e930ece42068176f3c5deee7862"
                    ]
                  }
                },
                {
                  "label": {
                    "text": "Avg. wrap",
                    "class": "row-y100"
                  },
                  "type": "widget.msToS",
                  "metric": "queues.wrapup.avg",
                  "params": {
                      "queues": [
                        "eb310e930ece42068176f3c5deee7862"
                    ]
                  }
                },
                {
                  "label": {
                    "text": "Avg. hold time",
                    "class": "row-y100"
                  },
                  "type": "widget.msToS",
                  "metric": "calls.hold.avg",
                  "params": {
                    "queues": [
                      "eb310e930ece42068176f3c5deee7862"
                  ],
                    "heldCallsOnly": false
                  }
                }
              ]
            }
          ]
        },
        {
          "type": "widget.group",
          "label": {
            "text": "Service level DACH"
          },
          "rows": [
            {
              "display": true,
              "class": "row-y100",
              "widgets": [
                {
                  "label": {
                    "text": "Service-Level 20 sec"
                  },
                  "type": "widget.percentage",
                  "metric": "service-level.value",
                  "params": {
                    "queues": [
                      "eb310e930ece42068176f3c5deee7862"
                  ],
                    "bridgedOnly": true,
                    "lessThan": 21,
                    "queueOnly": true
                  }
                },
                {
                  "label": {
                    "text": "Service-Level 30 sec"
                  },
                  "type": "widget.percentage",
                  "metric": "service-level.value",
                  "params": {
                    "queues": [
                      "eb310e930ece42068176f3c5deee7862"
                  ],
                    "bridgedOnly": true,
                    "lessThan": 31,
                    "queueOnly": true
                  }
                },
                {
                  "label": {
                    "text": "Service-Level 40 sec"
                  },
                  "type": "widget.percentage",
                  "metric": "service-level.value",
                  "params": {
                    "queues": [
                      "eb310e930ece42068176f3c5deee7862"
                  ],
                    "bridgedOnly": true,
                    "lessThan": 41,
                    "queueOnly": true
                  }
                }
              ]
            }
          ]
        }
      ]
    }
  ]
}