{
  "type": "dashboard",
  "label": {
    "text": "Real-time Dashboard"
  },
  "rows": [
    {
      "label": "DE Support",
      "widgets": [
        {
          "module": "agent.status",
          "settings": {
            "push": false,
            "label": "DE Support Agents",
           "groups": ["34d25986-6ee7-409d-af42-5e41bb647df8"],
            "tags": ["de-de"]
          }
        },
        {
          "module": "queue.summary",
          "settings": {
            "queues": ["d9bf6bdc-27b8-4a1b-9d21-05a553011760"]
          }
        }
      ]
    },
    {
      "class": "row-y400",
      "display": true,
      "widgets": [
        {
          "type": "widget.group",
          "label": {
            "text": "Inbound right now - CS-Technik-RC DE"
          },
          "rows": [
            {
              "widgets": [
                {
                  "label": {
                    "text": "Inbound right now - CS-Technik-RC DE"
                  },
                  "type": "bar-chart",
                  "metric": "queues",
                  "dataUrl": "/metrics/queues",
                  "params": {
            "enabled": true,
            "queues": [
              "d9bf6bdc-27b8-4a1b-9d21-05a553011760"
            ]
          }
                }
              ]
            }
          ]
        },
        {
          "type": "widget.group",
          "label": {
            "text": "Current agent activity - CS-Technik-RC DE"
          },
          "rows": [
            {
              "widgets": [
                {
                  "maxDisplayedItems": 10,
                  "type": "object-table-agents",
                  "tableData": "agents",
                  "tableHeader": "header-current-agent-activity",
                  "tableTemplate": "table-call-by-activity",
                  "dataUrl": "/agents",
                  "params": {
           			 "groups": ["CS-Technik-RC"],
			         "tags": ["de-de"]
          			}
                }
              ]
            }
          ]
        },
        {
          "type": "widget.group",
          "label": {
            "text": "Current call activity"
          },
          "class": "activity-calls",
          "rows": [
            {
              "widgets": [
                {
                  "maxDisplayedItems": 10,
                  "type": "object-table-calls",
                  "tableData": "calls",
                  "tableHeader": "header-current-call-activity",
                  "tableTemplate": "table-call-by-agent",
                  "dataUrl": "/calls/reporting?filters.domain=external&filters.state=in_progress&filters.state=queued&filters.state=ringing&filters.state=bridged&filters.state=scheduled"
                }
              ]
            }
          ]
        }
      ]
    },
    {
      "class": "row-y300",
      "display": true,
      "widgets": [
        {
          "module": "call.pie",
          "settings": {
            "type": "calls.inbound"
          }
        },
        {
          "module": "call.pie",
          "settings": {
            "type": "calls.inbound.missed"
          }
        },
        {
          "module": "call.pie",
          "settings": {
            "type": "calls.outbound"
          }
        }
      ]
    }
  ]
}