{
  "type": "dashboard",
  "label": {
    "text": "Real-time Dashboard"
  },
  "rows": [
    {
      "class": "row-y500",
      "display": true,
      "widgets": [
        {
          "type": "widget.group",
          "label": {
            "text": "All call queues Channel Manager B2C-1"
          },
          "rows": [
            {
              "widgets": [
                {
                  "label": {
                    "text": "B2C-1"
                  },
                  "type": "bar-chart",
                  "metric": "queues",
                  "dataUrl": "/metrics/queues?enabled=true",
                  "params": {
                    "enabled": true,
                    "queues": [
                      "004cc9588f874c93ae3a121f7d122300",
                      "a1050c7546ee44ab9e2b78f3e6f0cb76",
                      "b7af687cfd654609ad944fcdd903c2a0",
                      "dd5b81ac72ae4abebb0a6beb54c895fa",
                      "01b1f852208049d793f38fe020a471b8",
                      "dd45a28fbf134f7fb07dc3bfa0fe7075",
                      "4d3b5f829bad478889a95da879fb0514"
                    ]
                  }
                }
              ]
            }
          ]
        },
        {
          "type": "widget.group",
          "label": {
            "text": "Active agents B2C-1"
          },
          "rows": [
            {
              "widgets": [
                {
                  "maxDisplayedItems": 10,
                  "type": "object-table-agents",
                  "tableData": "agents",
                  "tableHeader": "header-current-agent-activity",
                  "tableTemplate": "table-call-by-activity",
                  "dataUrl": "/agents",
                  "params": {
                    "groups": [
                      "AU_Platforms",
                      "BE_Platforms-FR",
                      "BE_Platforms-NL",
                      "BG_Platforms",
                      "DE_Platforms",
                      "ES_Platforms",
                      "FR_Platforms"
                      
                    ]
                  }
                }
              ]
            }
          ]
        }
      ]
    },
    {
      "label": "AU_Platforms",
      "display": true,
      "class": "row-y250",
      "widgets": [
        {
          "type": "widget.group",
          "label": {
            "text": "Today's call data AU_Platforms"
          },
          "rows": [
            {
              "widgets": [
                {
                  "label": {
                    "text": "Offered"
                  },
                  "type": "widget.number",
                  "metric": "queues.calls.total",
                  "params": {
                    "queues": [
                      "004cc9588f874c93ae3a121f7d122300"
                    ]
                  }
                },
                {
                  "label": {
                    "text": "Accepted"
                  },
                  "type": "widget.number",
                  "metric": "calls.inbound.connected",
                  "params": {
                    "queues": [
                      "004cc9588f874c93ae3a121f7d122300"
                    ]
                  }
                },
                {
                  "label": {
                    "text": "Missed"
                  },
                  "type": "widget.number",
                  "metric": "calls.inbound.missed.queued",
                  "params": {
                    "queues": [
                      "004cc9588f874c93ae3a121f7d122300"
                    ]
                  }
                },
                {
                  "label": {
                    "text": "Avg. wait time"
                  },
                  "type": "widget.msToS",
                  "metric": "queues.wait-time.avg",
                  "params": {
                    "queues": [
                      "004cc9588f874c93ae3a121f7d122300"
                    ],
                    "bridgedOnly": false
                  }
                },
                {
                   "label": {
                     "text": "Abandon rate"
                   },
                   "type": "widget.percentage",
                   "metric": "abandon.value",
                   "params": {
                     "queues": [
                       "004cc9588f874c93ae3a121f7d122300"
                     ]
                   }
                 },
                 {
                   "label": {
                     "text": "Service-Level"
                   },
                   "type": "widget.percentage",
                   "metric": "service-level.value",
                   "params": {
                     "queues": [
                       "004cc9588f874c93ae3a121f7d122300"
                     ],
                     "bridgedOnly": true,
                     "lessThan": 61,
                     "queueOnly": true
                   }
                 },
                {
                  "label": {
                    "text": "Longest waiting"
                  },
                  "type": "widget.sToMMSS",
                  "metric": "queues.calls.waiting.total",
                  "params": {
                    "queues": [
                      "004cc9588f874c93ae3a121f7d122300"
                    ]
                  }
                }
              ]
            }
          ]
        },
        {
          "type": "widget.group",
          "label": {
            "text": "Average call data on AU_Platforms"
          },
          "rows": [
            {
              "widgets": [
                {
                  "label": {
                    "text": "Talk Time"
                  },
                  "type": "widget.msToS",
                  "metric": "queues.talk-time.avg",
                  "params": {
                    "queues": [
                      "004cc9588f874c93ae3a121f7d122300"
                    ]
                  }
                },
                {
                  "label": {
                    "text": "AHT"
                  },
                  "type": "widget.msToS",
                  "metric": "queues.handle-time.avg",
                  "params": {
                    "queues": [
                      "004cc9588f874c93ae3a121f7d122300"
                    ]
                  }
                },
                {
                  "label": {
                    "text": "Avg. wrap",
                    "class": "row-y100"
                  },
                  "type": "widget.msToS",
                  "metric": "queues.wrapup.avg",
                  "params": {
                    "queues": [
                      "004cc9588f874c93ae3a121f7d122300"
                    ]
                  }
                },
                {
                  "label": {
                    "text": "Avg. hold time",
                    "class": "row-y100"
                  },
                  "type": "widget.msToS",
                  "metric": "calls.hold.avg",
                  "params": {
                    "queues": [
                      "004cc9588f874c93ae3a121f7d122300"
                    ],
                    "heldCallsOnly": false
                  }
                }
              ]
            }
          ]
        },
        {
          "type": "widget.group",
          "rows": [
            {
              "display": true,
              "class": "row-y100",
              "widgets": [
                {
                  "module": "agent.status",
                  "settings": {
                    "push": false,
                    "groups": [
                      "AU_Platforms"
                    ]
                  }
                }
              ]
            }
          ]
        },
        {
          "type": "widget.group",
          "label": {
            "text": "Active agents AU_Platforms"
          },
          "rows": [
            {
              "widgets": [
                {
                  "maxDisplayedItems": 10,
                  "type": "object-table-agents",
                  "tableData": "agents",
                  "tableHeader": "header-current-agent-activity",
                  "tableTemplate": "table-call-by-activity",
                  "dataUrl": "/agents",
                  "params": {
                    "groups": [
                      "AU_Platforms"
                    ]
                  }
                }
              ]
            }
          ]
        }
      ]
    },
    {
      "label": "BE_Platforms-FR",
      "display": true,
      "class": "row-y250",
      "widgets": [
        {
          "type": "widget.group",
          "label": {
            "text": "Today's call data BE_Platforms-FR"
          },
          "rows": [
            {
              "widgets": [
                {
                  "label": {
                    "text": "Offered"
                  },
                  "type": "widget.number",
                  "metric": "queues.calls.total",
                  "params": {
                    "queues": [
                      "a1050c7546ee44ab9e2b78f3e6f0cb76"
                    ]
                  }
                },
                {
                  "label": {
                    "text": "Accepted"
                  },
                  "type": "widget.number",
                  "metric": "calls.inbound.connected",
                  "params": {
                    "queues": [
                      "a1050c7546ee44ab9e2b78f3e6f0cb76"
                    ]
                  }
                },
                {
                  "label": {
                    "text": "Missed"
                  },
                  "type": "widget.number",
                  "metric": "calls.inbound.missed.queued",
                  "params": {
                    "queues": [
                      "a1050c7546ee44ab9e2b78f3e6f0cb76"
                    ]
                  }
                },
                {
                  "label": {
                    "text": "Avg. wait time"
                  },
                  "type": "widget.msToS",
                  "metric": "queues.wait-time.avg",
                  "params": {
                    "queues": [
                      "a1050c7546ee44ab9e2b78f3e6f0cb76"
                    ],
                    "bridgedOnly": false
                  }
                },
                {
                  "label": {
                    "text": "Abandon rate"
                  },
                  "type": "widget.percentage",
                  "metric": "abandon.value",
                  "params": {
                    "queues": [
                      "a1050c7546ee44ab9e2b78f3e6f0cb76"
                    ]
                  }
                },
                {
                  "label": {
                    "text": "Service-Level"
                  },
                  "type": "widget.percentage",
                  "metric": "service-level.value",
                  "params": {
                    "queues": [
                      "a1050c7546ee44ab9e2b78f3e6f0cb76"
                    ],
                    "bridgedOnly": true,
                    "lessThan": 61,
                    "queueOnly": true
                  }
                },
                {
                  "label": {
                    "text": "Longest waiting"
                  },
                  "type": "widget.sToMMSS",
                  "metric": "queues.calls.waiting.total",
                  "params": {
                    "queues": [
                      "a1050c7546ee44ab9e2b78f3e6f0cb76"
                    ]
                  }
                }
              ]
            }
          ]
        },
        {
          "type": "widget.group",
          "label": {
            "text": "Average call data on BE_Platforms-FR"
          },
          "rows": [
            {
              "widgets": [
                {
                  "label": {
                    "text": "Talk Time"
                  },
                  "type": "widget.msToS",
                  "metric": "queues.talk-time.avg",
                  "params": {
                    "queues": [
                      "a1050c7546ee44ab9e2b78f3e6f0cb76"
                    ]
                  }
                },
                {
                  "label": {
                    "text": "AHT"
                  },
                  "type": "widget.msToS",
                  "metric": "queues.handle-time.avg",
                  "params": {
                    "queues": [
                      "a1050c7546ee44ab9e2b78f3e6f0cb76"
                    ]
                  }
                },
                {
                  "label": {
                    "text": "Avg. wrap",
                    "class": "row-y100"
                  },
                  "type": "widget.msToS",
                  "metric": "queues.wrapup.avg",
                  "params": {
                    "queues": [
                      "a1050c7546ee44ab9e2b78f3e6f0cb76"
                    ]
                  }
                },
                {
                  "label": {
                    "text": "Avg. hold time",
                    "class": "row-y100"
                  },
                  "type": "widget.msToS",
                  "metric": "calls.hold.avg",
                  "params": {
                    "queues": [
                      "a1050c7546ee44ab9e2b78f3e6f0cb76"
                    ],
                    "heldCallsOnly": false
                  }
                }
              ]
            }
          ]
        },
        {
          "type": "widget.group",
          "rows": [
            {
              "display": true,
              "class": "row-y100",
              "widgets": [
                {
                  "module": "agent.status",
                  "settings": {
                    "push": false,
                    "groups": [
                      "BE_Platforms-FR"
                    ]
                  }
                }
              ]
            }
          ]
        },
        {
          "type": "widget.group",
          "label": {
            "text": "Active agents BE_Platforms-FR"
          },
          "rows": [
            {
              "widgets": [
                {
                  "maxDisplayedItems": 10,
                  "type": "object-table-agents",
                  "tableData": "agents",
                  "tableHeader": "header-current-agent-activity",
                  "tableTemplate": "table-call-by-activity",
                  "dataUrl": "/agents",
                  "params": {
                    "groups": [
                      "BE_Platforms-FR"
                    ]
                  }
                }
              ]
            }
          ]
        }
      ]
    },
    {
      "label": "BE_Platforms-NL",
      "display": true,
      "class": "row-y250",
      "widgets": [
        {
          "type": "widget.group",
          "label": {
            "text": "Today's call data BE_Platforms-NL"
          },
          "rows": [
            {
              "widgets": [
                {
                  "label": {
                    "text": "Offered"
                  },
                  "type": "widget.number",
                  "metric": "queues.calls.total",
                  "params": {
                    "queues": [
                      "b7af687cfd654609ad944fcdd903c2a0"
                    ]
                  }
                },
                {
                  "label": {
                    "text": "Accepted"
                  },
                  "type": "widget.number",
                  "metric": "calls.inbound.connected",
                  "params": {
                    "queues": [
                      "b7af687cfd654609ad944fcdd903c2a0"
                    ]
                  }
                },
                {
                  "label": {
                    "text": "Missed"
                  },
                  "type": "widget.number",
                  "metric": "calls.inbound.missed.queued",
                  "params": {
                    "queues": [
                      "b7af687cfd654609ad944fcdd903c2a0"
                    ]
                  }
                },
                {
                  "label": {
                    "text": "Avg. wait time"
                  },
                  "type": "widget.msToS",
                  "metric": "queues.wait-time.avg",
                  "params": {
                    "queues": [
                      "b7af687cfd654609ad944fcdd903c2a0"
                    ],
                    "bridgedOnly": false
                  }
                },
                {
                  "label": {
                    "text": "Abandon rate"
                  },
                  "type": "widget.percentage",
                  "metric": "abandon.value",
                  "params": {
                    "queues": [
                      "b7af687cfd654609ad944fcdd903c2a0"
                    ]
                  }
                },
                {
                  "label": {
                    "text": "Service-Level"
                  },
                  "type": "widget.percentage",
                  "metric": "service-level.value",
                  "params": {
                    "queues": [
                      "b7af687cfd654609ad944fcdd903c2a0"
                    ],
                    "bridgedOnly": true,
                    "lessThan": 61,
                    "queueOnly": true
                  }
                },
                {
                  "label": {
                    "text": "Longest waiting"
                  },
                  "type": "widget.sToMMSS",
                  "metric": "queues.calls.waiting.total",
                  "params": {
                    "queues": [
                      "b7af687cfd654609ad944fcdd903c2a0"
                    ]
                  }
                }
              ]
            }
          ]
        },
        {
          "type": "widget.group",
          "label": {
            "text": "Average call data on BE_Platforms-NL"
          },
          "rows": [
            {
              "widgets": [
                {
                  "label": {
                    "text": "Talk Time"
                  },
                  "type": "widget.msToS",
                  "metric": "queues.talk-time.avg",
                  "params": {
                    "queues": [
                      "b7af687cfd654609ad944fcdd903c2a0"
                    ]
                  }
                },
                {
                  "label": {
                    "text": "AHT"
                  },
                  "type": "widget.msToS",
                  "metric": "queues.handle-time.avg",
                  "params": {
                    "queues": [
                      "b7af687cfd654609ad944fcdd903c2a0"
                    ]
                  }
                },
                {
                  "label": {
                    "text": "Avg. wrap",
                    "class": "row-y100"
                  },
                  "type": "widget.msToS",
                  "metric": "queues.wrapup.avg",
                  "params": {
                    "queues": [
                      "b7af687cfd654609ad944fcdd903c2a0"
                    ]
                  }
                },
                {
                  "label": {
                    "text": "Avg. hold time",
                    "class": "row-y100"
                  },
                  "type": "widget.msToS",
                  "metric": "calls.hold.avg",
                  "params": {
                    "queues": [
                      "b7af687cfd654609ad944fcdd903c2a0"
                    ],
                    "heldCallsOnly": false
                  }
                }
              ]
            }
          ]
        },
        {
          "type": "widget.group",
          "rows": [
            {
              "display": true,
              "class": "row-y100",
              "widgets": [
                {
                  "module": "agent.status",
                  "settings": {
                    "push": false,
                    "groups": [
                      "BE_Platforms-NL"
                    ]
                  }
                }
              ]
            }
          ]
        },
        {
          "type": "widget.group",
          "label": {
            "text": "Active agents BE_Platforms-NL"
          },
          "rows": [
            {
              "widgets": [
                {
                  "maxDisplayedItems": 10,
                  "type": "object-table-agents",
                  "tableData": "agents",
                  "tableHeader": "header-current-agent-activity",
                  "tableTemplate": "table-call-by-activity",
                  "dataUrl": "/agents",
                  "params": {
                    "groups": [
                      "BE_Platforms-NL"
                    ]
                  }
                }
              ]
            }
          ]
        }
      ]
    },
    {
      "label": "BG_Platforms",
      "display": true,
      "class": "row-y250",
      "widgets": [
        {
          "type": "widget.group",
          "label": {
            "text": "Today's call data BG_Platforms"
          },
          "rows": [
            {
              "widgets": [
                {
                  "label": {
                    "text": "Offered"
                  },
                  "type": "widget.number",
                  "metric": "queues.calls.total",
                  "params": {
                    "queues": [
                      "dd5b81ac72ae4abebb0a6beb54c895fa"
                    ]
                  }
                },
                {
                  "label": {
                    "text": "Accepted"
                  },
                  "type": "widget.number",
                  "metric": "calls.inbound.connected",
                  "params": {
                    "queues": [
                      "dd5b81ac72ae4abebb0a6beb54c895fa"
                    ]
                  }
                },
                {
                  "label": {
                    "text": "Missed"
                  },
                  "type": "widget.number",
                  "metric": "calls.inbound.missed.queued",
                  "params": {
                    "queues": [
                      "dd5b81ac72ae4abebb0a6beb54c895fa"
                    ]
                  }
                },
                {
                  "label": {
                    "text": "Avg. wait time"
                  },
                  "type": "widget.msToS",
                  "metric": "queues.wait-time.avg",
                  "params": {
                    "queues": [
                      "dd5b81ac72ae4abebb0a6beb54c895fa"
                    ],
                    "bridgedOnly": false
                  }
                },
                {
                  "label": {
                    "text": "Abandon rate"
                  },
                  "type": "widget.percentage",
                  "metric": "abandon.value",
                  "params": {
                    "queues": [
                      "dd5b81ac72ae4abebb0a6beb54c895fa"
                    ]
                  }
                },
                {
                  "label": {
                    "text": "Service-Level"
                  },
                  "type": "widget.percentage",
                  "metric": "service-level.value",
                  "params": {
                    "queues": [
                      "dd5b81ac72ae4abebb0a6beb54c895fa"
                    ],
                    "bridgedOnly": true,
                    "lessThan": 61,
                    "queueOnly": true
                  }
                },
                {
                  "label": {
                    "text": "Longest waiting"
                  },
                  "type": "widget.sToMMSS",
                  "metric": "queues.calls.waiting.total",
                  "params": {
                    "queues": [
                      "dd5b81ac72ae4abebb0a6beb54c895fa"
                    ]
                  }
                }
              ]
            }
          ]
        },
        {
          "type": "widget.group",
          "label": {
            "text": "Average call data on BG_Platforms"
          },
          "rows": [
            {
              "widgets": [
                {
                  "label": {
                    "text": "Talk Time"
                  },
                  "type": "widget.msToS",
                  "metric": "queues.talk-time.avg",
                  "params": {
                    "queues": [
                      "dd5b81ac72ae4abebb0a6beb54c895fa"
                    ]
                  }
                },
                {
                  "label": {
                    "text": "AHT"
                  },
                  "type": "widget.msToS",
                  "metric": "queues.handle-time.avg",
                  "params": {
                    "queues": [
                      "dd5b81ac72ae4abebb0a6beb54c895fa"
                    ]
                  }
                },
                {
                  "label": {
                    "text": "Avg. wrap",
                    "class": "row-y100"
                  },
                  "type": "widget.msToS",
                  "metric": "queues.wrapup.avg",
                  "params": {
                    "queues": [
                      "dd5b81ac72ae4abebb0a6beb54c895fa"
                    ]
                  }
                },
                {
                  "label": {
                    "text": "Avg. hold time",
                    "class": "row-y100"
                  },
                  "type": "widget.msToS",
                  "metric": "calls.hold.avg",
                  "params": {
                    "queues": [
                      "dd5b81ac72ae4abebb0a6beb54c895fa"
                    ],
                    "heldCallsOnly": false
                  }
                }
              ]
            }
          ]
        },
        {
          "type": "widget.group",
          "rows": [
            {
              "display": true,
              "class": "row-y100",
              "widgets": [
                {
                  "module": "agent.status",
                  "settings": {
                    "push": false,
                    "groups": [
                      "BG_Platforms"
                    ]
                  }
                }
              ]
            }
          ]
        },
        {
          "type": "widget.group",
          "label": {
            "text": "Active agents BG_Platforms"
          },
          "rows": [
            {
              "widgets": [
                {
                  "maxDisplayedItems": 10,
                  "type": "object-table-agents",
                  "tableData": "agents",
                  "tableHeader": "header-current-agent-activity",
                  "tableTemplate": "table-call-by-activity",
                  "dataUrl": "/agents",
                  "params": {
                    "groups": [
                      "BG_Platforms"
                    ]
                  }
                }
              ]
            }
          ]
        }
      ]
    },
    {
      "label": "DE_Platforms",
      "display": true,
      "class": "row-y250",
      "widgets": [
        {
          "type": "widget.group",
          "label": {
            "text": "Today's call data DE_Platforms"
          },
          "rows": [
            {
              "widgets": [
                {
                  "label": {
                    "text": "Offered"
                  },
                  "type": "widget.number",
                  "metric": "queues.calls.total",
                  "params": {
                    "queues": [
                      "01b1f852208049d793f38fe020a471b8"
                    ]
                  }
                },
                {
                  "label": {
                    "text": "Accepted"
                  },
                  "type": "widget.number",
                  "metric": "calls.inbound.connected",
                  "params": {
                    "queues": [
                      "01b1f852208049d793f38fe020a471b8"
                    ]
                  }
                },
                {
                  "label": {
                    "text": "Missed"
                  },
                  "type": "widget.number",
                  "metric": "calls.inbound.missed.queued",
                  "params": {
                    "queues": [
                      "01b1f852208049d793f38fe020a471b8"
                    ]
                  }
                },
                {
                  "label": {
                    "text": "Avg. wait time"
                  },
                  "type": "widget.msToS",
                  "metric": "queues.wait-time.avg",
                  "params": {
                    "queues": [
                      "01b1f852208049d793f38fe020a471b8"
                    ],
                    "bridgedOnly": false
                  }
                },
                {
                  "label": {
                    "text": "Abandon rate"
                  },
                  "type": "widget.percentage",
                  "metric": "abandon.value",
                  "params": {
                    "queues": [
                      "01b1f852208049d793f38fe020a471b8"
                    ]
                  }
                },
                {
                  "label": {
                    "text": "Service-Level"
                  },
                  "type": "widget.percentage",
                  "metric": "service-level.value",
                  "params": {
                    "queues": [
                      "01b1f852208049d793f38fe020a471b8"
                    ],
                    "bridgedOnly": true,
                    "lessThan": 61,
                    "queueOnly": true
                  }
                },
                {
                  "label": {
                    "text": "Longest waiting"
                  },
                  "type": "widget.sToMMSS",
                  "metric": "queues.calls.waiting.total",
                  "params": {
                    "queues": [
                      "01b1f852208049d793f38fe020a471b8"
                    ]
                  }
                }
              ]
            }
          ]
        },
        {
          "type": "widget.group",
          "label": {
            "text": "Average call data on DE_Platforms"
          },
          "rows": [
            {
              "widgets": [
                {
                  "label": {
                    "text": "Talk Time"
                  },
                  "type": "widget.msToS",
                  "metric": "queues.talk-time.avg",
                  "params": {
                    "queues": [
                      "01b1f852208049d793f38fe020a471b8"
                    ]
                  }
                },
                {
                  "label": {
                    "text": "AHT"
                  },
                  "type": "widget.msToS",
                  "metric": "queues.handle-time.avg",
                  "params": {
                    "queues": [
                      "01b1f852208049d793f38fe020a471b8"
                    ]
                  }
                },
                {
                  "label": {
                    "text": "Avg. wrap",
                    "class": "row-y100"
                  },
                  "type": "widget.msToS",
                  "metric": "queues.wrapup.avg",
                  "params": {
                    "queues": [
                      "01b1f852208049d793f38fe020a471b8"
                    ]
                  }
                },
                {
                  "label": {
                    "text": "Avg. hold time",
                    "class": "row-y100"
                  },
                  "type": "widget.msToS",
                  "metric": "calls.hold.avg",
                  "params": {
                    "queues": [
                      "01b1f852208049d793f38fe020a471b8"
                    ],
                    "heldCallsOnly": false
                  }
                }
              ]
            }
          ]
        },
        {
          "type": "widget.group",
          "rows": [
            {
              "display": true,
              "class": "row-y100",
              "widgets": [
                {
                  "module": "agent.status",
                  "settings": {
                    "push": false,
                    "groups": [
                      "DE_Platforms"
                    ]
                  }
                }
              ]
            }
          ]
        },
        {
          "type": "widget.group",
          "label": {
            "text": "Active agents DE_Platforms"
          },
          "rows": [
            {
              "widgets": [
                {
                  "maxDisplayedItems": 10,
                  "type": "object-table-agents",
                  "tableData": "agents",
                  "tableHeader": "header-current-agent-activity",
                  "tableTemplate": "table-call-by-activity",
                  "dataUrl": "/agents",
                  "params": {
                    "groups": [
                      "DE_Platforms"
                    ]
                  }
                }
              ]
            }
          ]
        }
      ]
    },
    {
      "label": "ES_Platforms",
      "display": true,
      "class": "row-y250",
      "widgets": [
        {
          "type": "widget.group",
          "label": {
            "text": "Today's call data ES_Platforms"
          },
          "rows": [
            {
              "widgets": [
                {
                  "label": {
                    "text": "Offered"
                  },
                  "type": "widget.number",
                  "metric": "queues.calls.total",
                  "params": {
                    "queues": [
                      "dd45a28fbf134f7fb07dc3bfa0fe7075"
                    ]
                  }
                },
                {
                  "label": {
                    "text": "Accepted"
                  },
                  "type": "widget.number",
                  "metric": "calls.inbound.connected",
                  "params": {
                    "queues": [
                      "dd45a28fbf134f7fb07dc3bfa0fe7075"
                    ]
                  }
                },
                {
                  "label": {
                    "text": "Missed"
                  },
                  "type": "widget.number",
                  "metric": "calls.inbound.missed.queued",
                  "params": {
                    "queues": [
                      "dd45a28fbf134f7fb07dc3bfa0fe7075"
                    ]
                  }
                },
                {
                  "label": {
                    "text": "Avg. wait time"
                  },
                  "type": "widget.msToS",
                  "metric": "queues.wait-time.avg",
                  "params": {
                    "queues": [
                      "dd45a28fbf134f7fb07dc3bfa0fe7075"
                    ],
                    "bridgedOnly": false
                  }
                },
                {
                  "label": {
                    "text": "Abandon rate"
                  },
                  "type": "widget.percentage",
                  "metric": "abandon.value",
                  "params": {
                    "queues": [
                      "dd45a28fbf134f7fb07dc3bfa0fe7075"
                    ]
                  }
                },
                {
                  "label": {
                    "text": "Service-Level"
                  },
                  "type": "widget.percentage",
                  "metric": "service-level.value",
                  "params": {
                    "queues": [
                      "dd45a28fbf134f7fb07dc3bfa0fe7075"
                    ],
                    "bridgedOnly": true,
                    "lessThan": 61,
                    "queueOnly": true
                  }
                },
                {
                  "label": {
                    "text": "Longest waiting"
                  },
                  "type": "widget.sToMMSS",
                  "metric": "queues.calls.waiting.total",
                  "params": {
                    "queues": [
                      "dd45a28fbf134f7fb07dc3bfa0fe7075"
                    ]
                  }
                }
              ]
            }
          ]
        },
        {
          "type": "widget.group",
          "label": {
            "text": "Average call data on ES_Platforms"
          },
          "rows": [
            {
              "widgets": [
                {
                  "label": {
                    "text": "Talk Time"
                  },
                  "type": "widget.msToS",
                  "metric": "queues.talk-time.avg",
                  "params": {
                    "queues": [
                      "dd45a28fbf134f7fb07dc3bfa0fe7075"
                    ]
                  }
                },
                {
                  "label": {
                    "text": "AHT"
                  },
                  "type": "widget.msToS",
                  "metric": "queues.handle-time.avg",
                  "params": {
                    "queues": [
                      "dd45a28fbf134f7fb07dc3bfa0fe7075"
                    ]
                  }
                },
                {
                  "label": {
                    "text": "Avg. wrap",
                    "class": "row-y100"
                  },
                  "type": "widget.msToS",
                  "metric": "queues.wrapup.avg",
                  "params": {
                    "queues": [
                      "dd45a28fbf134f7fb07dc3bfa0fe7075"
                    ]
                  }
                },
                {
                  "label": {
                    "text": "Avg. hold time",
                    "class": "row-y100"
                  },
                  "type": "widget.msToS",
                  "metric": "calls.hold.avg",
                  "params": {
                    "queues": [
                      "dd45a28fbf134f7fb07dc3bfa0fe7075"
                    ],
                    "heldCallsOnly": false
                  }
                }
              ]
            }
          ]
        },
        {
          "type": "widget.group",
          "rows": [
            {
              "display": true,
              "class": "row-y100",
              "widgets": [
                {
                  "module": "agent.status",
                  "settings": {
                    "push": false,
                    "groups": [
                      "ES_Platforms"
                    ]
                  }
                }
              ]
            }
          ]
        },
        {
          "type": "widget.group",
          "label": {
            "text": "Active agents ES_Platforms"
          },
          "rows": [
            {
              "widgets": [
                {
                  "maxDisplayedItems": 10,
                  "type": "object-table-agents",
                  "tableData": "agents",
                  "tableHeader": "header-current-agent-activity",
                  "tableTemplate": "table-call-by-activity",
                  "dataUrl": "/agents",
                  "params": {
                    "groups": [
                      "ES_Platforms"
                    ]
                  }
                }
              ]
            }
          ]
        }
      ]
    },
    {
      "label": "FR_Platforms",
      "display": true,
      "class": "row-y250",
      "widgets": [
        {
          "type": "widget.group",
          "label": {
            "text": "Today's call data FR_Platforms"
          },
          "rows": [
            {
              "widgets": [
                {
                  "label": {
                    "text": "Offered"
                  },
                  "type": "widget.number",
                  "metric": "queues.calls.total",
                  "params": {
                    "queues": [
                      "4d3b5f829bad478889a95da879fb0514"
                    ]
                  }
                },
                {
                  "label": {
                    "text": "Accepted"
                  },
                  "type": "widget.number",
                  "metric": "calls.inbound.connected",
                  "params": {
                    "queues": [
                      "4d3b5f829bad478889a95da879fb0514"
                    ]
                  }
                },
                {
                  "label": {
                    "text": "Missed"
                  },
                  "type": "widget.number",
                  "metric": "calls.inbound.missed.queued",
                  "params": {
                    "queues": [
                      "4d3b5f829bad478889a95da879fb0514"
                    ]
                  }
                },
                {
                  "label": {
                    "text": "Avg. wait time"
                  },
                  "type": "widget.msToS",
                  "metric": "queues.wait-time.avg",
                  "params": {
                    "queues": [
                      "4d3b5f829bad478889a95da879fb0514"
                    ],
                    "bridgedOnly": false
                  }
                },
                {
                  "label": {
                    "text": "Abandon rate"
                  },
                  "type": "widget.percentage",
                  "metric": "abandon.value",
                  "params": {
                    "queues": [
                      "4d3b5f829bad478889a95da879fb0514"
                    ]
                  }
                },
                {
                  "label": {
                    "text": "Service-Level"
                  },
                  "type": "widget.percentage",
                  "metric": "service-level.value",
                  "params": {
                    "queues": [
                      "4d3b5f829bad478889a95da879fb0514"
                    ],
                    "bridgedOnly": true,
                    "lessThan": 61,
                    "queueOnly": true
                  }
                },
                {
                  "label": {
                    "text": "Longest waiting"
                  },
                  "type": "widget.sToMMSS",
                  "metric": "queues.calls.waiting.total",
                  "params": {
                    "queues": [
                      "4d3b5f829bad478889a95da879fb0514"
                    ]
                  }
                }
              ]
            }
          ]
        },
        {
          "type": "widget.group",
          "label": {
            "text": "Average call data on FR_Platforms"
          },
          "rows": [
            {
              "widgets": [
                {
                  "label": {
                    "text": "Talk Time"
                  },
                  "type": "widget.msToS",
                  "metric": "queues.talk-time.avg",
                  "params": {
                    "queues": [
                      "4d3b5f829bad478889a95da879fb0514"
                    ]
                  }
                },
                {
                  "label": {
                    "text": "AHT"
                  },
                  "type": "widget.msToS",
                  "metric": "queues.handle-time.avg",
                  "params": {
                    "queues": [
                      "4d3b5f829bad478889a95da879fb0514"
                    ]
                  }
                },
                {
                  "label": {
                    "text": "Avg. wrap",
                    "class": "row-y100"
                  },
                  "type": "widget.msToS",
                  "metric": "queues.wrapup.avg",
                  "params": {
                    "queues": [
                      "4d3b5f829bad478889a95da879fb0514"
                    ]
                  }
                },
                {
                  "label": {
                    "text": "Avg. hold time",
                    "class": "row-y100"
                  },
                  "type": "widget.msToS",
                  "metric": "calls.hold.avg",
                  "params": {
                    "queues": [
                      "4d3b5f829bad478889a95da879fb0514"
                    ],
                    "heldCallsOnly": false
                  }
                }
              ]
            }
          ]
        },
        {
          "type": "widget.group",
          "rows": [
            {
              "display": true,
              "class": "row-y100",
              "widgets": [
                {
                  "module": "agent.status",
                  "settings": {
                    "push": false,
                    "groups": [
                      "FR_Platforms"
                    ]
                  }
                }
              ]
            }
          ]
        },
        {
          "type": "widget.group",
          "label": {
            "text": "Active agents FR_Platforms"
          },
          "rows": [
            {
              "widgets": [
                {
                  "maxDisplayedItems": 10,
                  "type": "object-table-agents",
                  "tableData": "agents",
                  "tableHeader": "header-current-agent-activity",
                  "tableTemplate": "table-call-by-activity",
                  "dataUrl": "/agents",
                  "params": {
                    "groups": [
                      "FR_Platforms"
                    ]
                  }
                }
              ]
            }
          ]
        }
      ]
    }
  ]
}