{
  "type": "dashboard",
  "label": {
    "text": "Real-time Dashboard"
  },
  "rows": [
    {
      "class": "row-y400",
      "display": true,
      "widgets": [
        {
          "type": "widget.group",
          "label": {
            "text": "All call queues Momox"
          },
          "rows": [
            {
              "widgets": [
                {
                  "label": {
                    "text": "Momox Inhouse"
                  },
                  "type": "bar-chart",
                  "metric": "queues",
                  "dataUrl": "/metrics/queues?enabled=true",
                  "params": {
                    "enabled": true,
                    "queues": [
                      "efa796b7708d4e039dccff7757a4058d",
                      "f3a33c689a4349ee90beb8cc48c13443",
                      "9de35676b615474596236eadc013497a",
                      "3fa1ffbb129f42f2af8d623619c04297",
                      "9c3e30ab5fc940098387287a6e9c748c",
                      "6e1fa92875424bf5b00f2f21882e2f7f"
                    ]
                  }
                }
              ]
            }
          ]
        }
      ]
    },
    {
      "display": true,
      "class": "row-y80",
      "widgets": [
        {
          "type": "widget.group",
          "rows": [
            {
              "widgets": [
                {
                  "module": "agent.status",
                  "settings": {
                    "push": false,
                    "label": "Fashion Purchase DE Agenten Status",
                    "groups": [
                      "MOMOX // Fashion Purchase // GER"
                    ]
                  }
                }
              ]
            }
          ]
        },
        {
          "type": "widget.group",
          "rows": [
            {
              "widgets": [
                {
                  "module": "agent.status",
                  "settings": {
                    "push": false,
                    "label": "Fashion Selling DE Agenten Status",
                    "groups": [
                      "MOMOX // Fashion Selling // GER"
                    ]
                  }
                }
              ]
            }
          ]
        },
        {
          "type": "widget.group",
          "rows": [
            {
              "widgets": [
                {
                  "module": "agent.status",
                  "settings": {
                    "push": false,
                    "label": "Media Purchase DE Agenten Status",
                    "groups": [
                      "MOMOX // Media Purchase // GER",
                      "CMX // Media Purchase // GER"
                    ]
                  }
                }
              ]
            }
          ]
        }
      ]
    },
    {
      "class": "row-y150",
      "display": true,
      "widgets": [

        {
          "type": "widget.group",
          "label": {
            "text": "Fashion Purchase DE KPIs"
          },
          "rows": [
            {
              "widgets": [

                {
                  "label": {
                    "text": "Läng. Wartez."
                  },
                  "type": "widget.sToMMSS",
                  "metric": "queues.calls.waiting.total",
                  "params": {
                    "queues": [
                      "efa796b7708d4e039dccff7757a4058d"
                    ]
                  }
                },

                {
                  "label": {
                    "text": "Durch. Gesprz."
                  },
                  "type": "widget.msToS",
                  "metric": "queues.talk-time.avg",
                  "params": {
                    "queues": [
                      "efa796b7708d4e039dccff7757a4058d"
                    ]
                  }
                },
                {
                  "label": {
                    "text": "Durch. Wrapup",
                    "class": "row-y100"
                  },
                  "type": "widget.msToS",
                  "metric": "queues.wrapup.avg",
                  "params": {
                    "queues": [
                      "efa796b7708d4e039dccff7757a4058d"
                    ]
                  }
                },
                {
                  "label": {
                    "text": "Durch. Wartez."
                  },
                  "type": "widget.msToS",
                  "metric": "queues.wait-time.avg",
                  "params": {
                    "bridgedOnly": false,
                    "queues": [
                      "efa796b7708d4e039dccff7757a4058d"
                    ]
                  }
                },
                {
                  "label": {
                    "text": "Serv. Level"
                  },
                  "type": "widget.percentage",
                  "metric": "service-level.value",
                  "params": {
                    "queues": [
                      "efa796b7708d4e039dccff7757a4058d"
                    ],
                    "bridgedOnly": false,
                    "lessThan": 180,
                    "queueOnly": true
                  }
                },
                {
                  "label": {
                    "text": "Wart. Anrufe"
                  },
                  "type": "widget.number",
                  "metric": "queues.calls.total",
                  "params": {
                    "queues": [
                      "efa796b7708d4e039dccff7757a4058d"
                    ],
                    "states": "QUEUED"
                  }
                }
              ]
            }
          ]
        },
        {
          "type": "widget.group",
          "label": {
            "text": "Fashion Selling DE KPIs"
          },
          "rows": [
            {
              "widgets": [

                {
                  "label": {
                    "text": "Läng. Wartez."
                  },
                  "type": "widget.sToMMSS",
                  "metric": "queues.calls.waiting.total",
                  "params": {
                    "queues": [
                      "f3a33c689a4349ee90beb8cc48c13443"
                    ]
                  }
                },

                {
                  "label": {
                    "text": "Durch. Gesprz."
                  },
                  "type": "widget.msToS",
                  "metric": "queues.talk-time.avg",
                  "params": {
                    "queues": [
                      "f3a33c689a4349ee90beb8cc48c13443"
                    ]
                  }
                },
                {
                  "label": {
                    "text": "Durch. Wrapup.",
                    "class": "row-y100"
                  },
                  "type": "widget.msToS",
                  "metric": "queues.wrapup.avg",
                  "params": {
                    "queues": [
                      "f3a33c689a4349ee90beb8cc48c13443"
                    ]
                  }
                },
                {
                  "label": {
                    "text": "Durch. Wartez."
                  },
                  "type": "widget.msToS",
                  "metric": "queues.wait-time.avg",
                  "params": {
                    "bridgedOnly": false,
                    "queues": [
                      "f3a33c689a4349ee90beb8cc48c13443"
                    ]
                  }
                },
                {
                  "label": {
                    "text": "Service Level"
                  },
                  "type": "widget.percentage",
                  "metric": "service-level.value",
                  "params": {
                    "queues": [
                      "f3a33c689a4349ee90beb8cc48c13443"
                    ],
                    "bridgedOnly": false,
                    "lessThan": 180,
                    "queueOnly": true
                  }
                },
                {
                  "label": {
                    "text": "Wart. Anrufe"
                  },
                  "type": "widget.number",
                  "metric": "queues.calls.total",
                  "params": {
                    "queues": [
                      "f3a33c689a4349ee90beb8cc48c13443"
                    ],
                    "states": "QUEUED"
                  }
                }
              ]
            }
          ]
        },

        {
          "type": "widget.group",
          "label": {
            "text": "Media Purchase DE KPIs"
          },
          "rows": [
            {
              "widgets": [

                {
                  "label": {
                    "text": "Läng. Wartez."
                  },
                  "type": "widget.sToMMSS",
                  "metric": "queues.calls.waiting.total",
                  "params": {
                    "queues": [
                      "3fa1ffbb129f42f2af8d623619c04297"
                    ]
                  }
                },

                {
                  "label": {
                    "text": "Durch. Gesprz."
                  },
                  "type": "widget.msToS",
                  "metric": "queues.talk-time.avg",
                  "params": {
                    "queues": [
                      "3fa1ffbb129f42f2af8d623619c04297"
                    ]
                  }
                },
                {
                  "label": {
                    "text": "Durch. Wrapup",
                    "class": "row-y100"
                  },
                  "type": "widget.msToS",
                  "metric": "queues.wrapup.avg",
                  "params": {
                    "queues": [
                      "3fa1ffbb129f42f2af8d623619c04297"
                    ]
                  }
                },
                {
                  "label": {
                    "text": "Durch. Wartez."
                  },
                  "type": "widget.msToS",
                  "metric": "queues.wait-time.avg",
                  "params": {
                    "bridgedOnly": false,
                    "queues": [
                      "3fa1ffbb129f42f2af8d623619c04297"
                    ]
                  }
                },
                {
                  "label": {
                    "text": "Service Level"
                  },
                  "type": "widget.percentage",
                  "metric": "service-level.value",
                  "params": {
                    "queues": [
                      "3fa1ffbb129f42f2af8d623619c04297"
                    ],
                    "bridgedOnly": false,
                    "lessThan": 180,
                    "queueOnly": true
                  }
                },
                {
                  "label": {
                    "text": "Wart. Anrufe"
                  },
                  "type": "widget.number",
                  "metric": "queues.calls.total",
                  "params": {
                    "queues": [
                      "3fa1ffbb129f42f2af8d623619c04297"
                    ],
                    "states": "QUEUED"
                  }
                }
              ]
            }
          ]
        }

      ]
    },
    {
      "display": true,
      "class": "row-y80",
      "widgets": [
        {
          "type": "widget.group",
          "rows": [
            {
              "widgets": [
                {
                  "module": "agent.status",
                  "settings": {
                    "push": false,
                    "label": "Media Selling DE Agenten Status",
                    "groups": [
                      "MOMOX // Media Selling // GER",
                      "CMX // Media Selling // GER"
                    ]
                  }
                }
              ]
            }
          ]
        },
        {
          "type": "widget.group",
          "rows": [
            {
              "widgets": [
                {
                  "module": "agent.status",
                  "settings": {
                    "push": false,
                    "label": "Media Purchase FR Agenten Status",
                    "groups": [
                      "TRIZMA // Media Purchase // FR"
                    ]
                  }
                }
              ]
            }
          ]
        },
        {
          "type": "widget.group",
          "rows": [
            {
              "widgets": [
                {
                  "module": "agent.status",
                  "settings": {
                    "push": false,
                    "label": "Media Selling FR Agenten Status",
                    "groups": [
                      "TRIZMA // Media Selling // FR"
                    ]
                  }
                }
              ]
            }
          ]
        }
      ]
    },
    {
      "class": "row-y150",
      "display": true,
      "widgets": [

        {
          "type": "widget.group",
          "label": {
            "text": "Media Selling DE KPIs"
          },
          "rows": [
            {
              "widgets": [

                {
                  "label": {
                    "text": "Läng. Wartez."
                  },
                  "type": "widget.sToMMSS",
                  "metric": "queues.calls.waiting.total",
                  "params": {
                    "queues": [
                      "6e1fa92875424bf5b00f2f21882e2f7f"
                    ]
                  }
                },

                {
                  "label": {
                    "text": "Durch. Gesprz."
                  },
                  "type": "widget.msToS",
                  "metric": "queues.talk-time.avg",
                  "params": {
                    "queues": [
                      "6e1fa92875424bf5b00f2f21882e2f7f"
                    ]
                  }
                },
                {
                  "label": {
                    "text": "Durch. Wrapup",
                    "class": "row-y100"
                  },
                  "type": "widget.msToS",
                  "metric": "queues.wrapup.avg",
                  "params": {
                    "queues": [
                      "6e1fa92875424bf5b00f2f21882e2f7f"
                    ]
                  }
                },
                {
                  "label": {
                    "text": "Durch. Wartez."
                  },
                  "type": "widget.msToS",
                  "metric": "queues.wait-time.avg",
                  "params": {
                    "bridgedOnly": false,
                    "queues": [
                      "6e1fa92875424bf5b00f2f21882e2f7f"
                    ]
                  }
                },
                {
                  "label": {
                    "text": "Serv. Level"
                  },
                  "type": "widget.percentage",
                  "metric": "service-level.value",
                  "params": {
                    "queues": [
                      "6e1fa92875424bf5b00f2f21882e2f7f"
                    ],
                    "bridgedOnly": false,
                    "lessThan": 180,
                    "queueOnly": true
                  }
                },
                {
                  "label": {
                    "text": "Wart. Anrufe"
                  },
                  "type": "widget.number",
                  "metric": "queues.calls.total",
                  "params": {
                    "queues": [
                      "6e1fa92875424bf5b00f2f21882e2f7f"
                    ],
                    "states": "QUEUED"
                  }
                }
              ]
            }
          ]
        },
        {
          "type": "widget.group",
          "label": {
            "text": "Media Purchase FR KPIs"
          },
          "rows": [
            {
              "widgets": [

                {
                  "label": {
                    "text": "Läng. Wartez."
                  },
                  "type": "widget.sToMMSS",
                  "metric": "queues.calls.waiting.total",
                  "params": {
                    "queues": [
                      "9de35676b615474596236eadc013497a"
                    ]
                  }
                },

                {
                  "label": {
                    "text": "Durch. Gesprz."
                  },
                  "type": "widget.msToS",
                  "metric": "queues.talk-time.avg",
                  "params": {
                    "queues": [
                      "9de35676b615474596236eadc013497a"
                    ]
                  }
                },
                {
                  "label": {
                    "text": "Durch. Wrapup.",
                    "class": "row-y100"
                  },
                  "type": "widget.msToS",
                  "metric": "queues.wrapup.avg",
                  "params": {
                    "queues": [
                      "9de35676b615474596236eadc013497a"
                    ]
                  }
                },
                {
                  "label": {
                    "text": "Durch. Wartez."
                  },
                  "type": "widget.msToS",
                  "metric": "queues.wait-time.avg",
                  "params": {
                    "bridgedOnly": false,
                    "queues": [
                      "9de35676b615474596236eadc013497a"
                    ]
                  }
                },
                {
                  "label": {
                    "text": "Service Level"
                  },
                  "type": "widget.percentage",
                  "metric": "service-level.value",
                  "params": {
                    "queues": [
                      "9de35676b615474596236eadc013497a"
                    ],
                    "bridgedOnly": false,
                    "lessThan": 180,
                    "queueOnly": true
                  }
                },
                {
                  "label": {
                    "text": "Wart. Anrufe"
                  },
                  "type": "widget.number",
                  "metric": "queues.calls.total",
                  "params": {
                    "queues": [
                      "9de35676b615474596236eadc013497a"
                    ],
                    "states": "QUEUED"
                  }
                }
              ]
            }
          ]
        },

        {
          "type": "widget.group",
          "label": {
            "text": "Media Selling FR KPIs"
          },
          "rows": [
            {
              "widgets": [

                {
                  "label": {
                    "text": "Läng. Wartez."
                  },
                  "type": "widget.sToMMSS",
                  "metric": "queues.calls.waiting.total",
                  "params": {
                    "queues": [
                      "9c3e30ab5fc940098387287a6e9c748c"
                    ]
                  }
                },

                {
                  "label": {
                    "text": "Durch. Gesprz."
                  },
                  "type": "widget.msToS",
                  "metric": "queues.talk-time.avg",
                  "params": {
                    "queues": [
                      "9c3e30ab5fc940098387287a6e9c748c"
                    ]
                  }
                },
                {
                  "label": {
                    "text": "Durch. Wrapup",
                    "class": "row-y100"
                  },
                  "type": "widget.msToS",
                  "metric": "queues.wrapup.avg",
                  "params": {
                    "queues": [
                      "9c3e30ab5fc940098387287a6e9c748c"
                    ]
                  }
                },
                {
                  "label": {
                    "text": "Durch. Wartez."
                  },
                  "type": "widget.msToS",
                  "metric": "queues.wait-time.avg",
                  "params": {
                    "bridgedOnly": false,
                    "queues": [
                      "9c3e30ab5fc940098387287a6e9c748c"
                    ]
                  }
                },
                {
                  "label": {
                    "text": "Service Level"
                  },
                  "type": "widget.percentage",
                  "metric": "service-level.value",
                  "params": {
                    "queues": [
                      "9c3e30ab5fc940098387287a6e9c748c"
                    ],
                    "bridgedOnly": false,
                    "lessThan": 180,
                    "queueOnly": true
                  }
                },
                {
                  "label": {
                    "text": "Wart. Anrufe"
                  },
                  "type": "widget.number",
                  "metric": "queues.calls.total",
                  "params": {
                    "queues": [
                      "9c3e30ab5fc940098387287a6e9c748c"
                    ],
                    "states": "QUEUED"
                  }
                }
              ]
            }
          ]
        }

      ]
    }
  ]
}