{
  "type": "dashboard",
  "label": {
    "text": "Real-time Dashboard"
  },
  "rows": [
    {
      "class": "row-y400",
      "label": "Right now",
      "display": true,
      "widgets": [
        {
          "module": "agent.status"
        },
        {
          "type": "widget.group",
          "label": {
            "text": "Inbound - right now"
          },
          "rows": [
            {
              "widgets": [
                {
                  "label": {
                    "text": "All inbound calls"
                  },
                  "type": "widget.number",
                  "metric": "calls.inbound.active",
                  "push": true
                },
                {
                  "label": {
                    "text": "Inbound queued"
                  },
                  "type": "widget.number",
                  "metric": "calls.inbound.queued",
                  "push": true
                },
                {
                  "label": {
                    "text": "Inbound in call"
                  },
                  "type": "widget.number",
                  "metric": "calls.inbound.in_call",
                  "push": true
                }
              ]
            }
          ]
        },
        {
          "type": "widget.group",
          "label": {
            "text": "Outbound - right now"
          },
          "class": "outbound-now",
          "rows": [
            {
              "widgets": [
                {
                  "label": {
                    "text": "Outbound active"
                  },
                  "type": "widget.number",
                  "metric": "calls.outbound.active",
                  "push": true
                },
                {
                  "label": {
                    "text": "Outbound ringing"
                  },
                  "type": "widget.number",
                  "metric": "calls.outbound.ringing",
                  "push": true
                },
                {
                  "label": {
                    "text": "Outbound in call"
                  },
                  "type": "widget.number",
                  "metric": "calls.outbound.in_call",
                  "push": true
                }
              ]
            }
          ]
        }
      ]
    },
    {
      "label": "Sales",
      "widgets": [
        {
          "module": "agent.status",
          "settings": {
            "push": false,
            "label": "Sales Agents",
            "tags": [
              "sales"
            ]
          }
        },
        {
          "module": "queue.summary",
          "settings": {
            "query": "sales"
          }
        }
      ]
    },
    {
      "label": "Support",
      "widgets": [
        {
          "module": "agent.status",
          "settings": {
            "push": false,
            "label": "Support Agents",
            "tags": [
              "support"
            ]
          }
        },
        {
          "module": "queue.summary",
          "settings": {
            "query": "support"
          }
        }
      ]
    },
    {
      "label": "All Queues",
      "widgets": [
        {
          "module": "queue.summary",
          "settings": {
          }
        }
      ]
    },
    {
      "display": true,
      "class": "row-y300",
      "widgets": [
        {
          "type": "widget.group",
          "label": {
            "text": "Inbound right now - Categorized"
          },
          "rows": [
            {
              "widgets": [
                {
                  "label": {
                    "text": "Inbound right now - Categorized"
                  },
                  "type": "bar-chart",
                  "metric": "queues",
                  "dataUrl": "/metrics/queues?enabled=true"
                }
              ]
            }
          ]
        },
        {
          "type": "widget.group",
          "label": {
            "text": "Current agent activity"
          },
          "class": "activity-agents",
          "rows": [
            {
              "widgets": [
                {
                  "maxDisplayedItems": 10,
                  "type": "object-table-agents",
                  "tableData": "agents",
                  "tableHeader": "header-current-agent-activity",
                  "tableTemplate": "table-call-by-activity",
                  "dataUrl": "/agents?max=100&filters.enabled=true"
                }
              ]
            }
          ]
        },
        {
          "type": "widget.group",
          "label": {
            "text": "Current call activity"
          },
          "class": "activity-calls",
          "rows": [
            {
              "widgets": [
                {
                  "maxDisplayedItems": 10,
                  "type": "object-table-calls",
                  "tableData": "calls",
                  "tableHeader": "header-current-call-activity",
                  "tableTemplate": "table-call-by-agent",
                  "dataUrl": "/calls/reporting?filters.domain=external&filters.state=in_progress&filters.state=queued&filters.state=ringing&filters.state=bridged&filters.state=scheduled"
                }
              ]
            }
          ]
        }
      ]
    },
    {
      "display": true,
      "class": "row-y300",
      "widgets": [
        {
          "type": "widget.group",
          "label": {
            "code": "Inbound Calls - {{timeRange}}"
          },
          "class": "inbound-stats",
          "rows": [
            {
              "widgets": [
                {
                  "type": "doughnut-chart",
                  "segments": [
                    {
                      "metric": "calls.inbound.missed",
                      "label": "Missed",
                      "color": "#F0AD4E"
                    },
                    {
                      "metric": "calls.inbound.connected",
                      "label": "Accepted",
                      "color": "#5CB85C"
                    }
                  ],
                  "sum": {
                    "metric": "calls.inbound.total"
                  }
                }
              ]
            }
          ]
        },
        {
          "type": "widget.group",
          "label": {
            "code": "Missed Inbound Calls - {{timeRange}}"
          },
          "class": "inbound-stats",
          "rows": [
            {
              "widgets": [
                {
                  "type": "doughnut-chart",
                  "segments": [
                    {
                      "metric": "calls.inbound.missed.queued",
                      "label": "Hangup In Queue",
                      "color": "#F0AD4E"
                    },
                    {
                      "metric": "calls.inbound.missed.not_queued",
                      "label": "Hangup Before Queue",
                      "color": "#5CB85C"
                    }
                  ],
                  "sum": {
                    "metric": "calls.inbound.missed"
                  }
                }
              ]
            }
          ]
        },
        {
          "type": "widget.group",
          "label": {
            "code": "Outbound Calls - {{timeRange}}"
          },
          "class": "outbound-stats",
          "rows": [
            {
              "widgets": [
                {
                  "type": "doughnut-chart",
                  "segments": [
                    {
                      "metric": "calls.outbound.missed",
                      "label": "Not Connected",
                      "color": "#F0AD4E"
                    },
                    {
                      "metric": "calls.outbound.connected",
                      "label": "Connected",
                      "color": "#5CB85C"
                    }
                  ],
                  "sum": {
                    "metric": "calls.outbound.total"
                  }
                }
              ]
            }
          ]
        }
      ]
    }
  ]
}