{
  "type": "dashboard",
  "label": {
    "text": "Real-time Dashboard"
  },
  "rows": [
    {
      "class": "row-y500",
      "display": true,
      "widgets": [
        {
          "type": "widget.group",
          "label": {
            "text": "All call queues Team lead 3 (Zsolt)"
          },
          "rows": [
            {
              "widgets": [
                {
                  "label": {
                    "text": "Team lead 3 (Zsolt)"
                  },
                  "type": "bar-chart",
                  "metric": "queues",
                  "dataUrl": "/metrics/queues?enabled=true",
                  "params": {
                    "enabled": true,
                    "queues": [
                      "650bd0323c984184b9bc70dfd267c5d6",
                      "01b1f852208049d793f38fe020a471b8",
                      "2758dede2d4b4ae892d8b3c27ad089fb",
                      "01e9780c9e7a4738bb603fb11e063ed2"
                    ]
                  }
                }
              ]
            }
          ]
        },
        {
          "type": "widget.group",
          "label": {
            "text": "Active agents Team lead 3 (Zsolt)"
          },
          "rows": [
            {
              "widgets": [
                {
                  "maxDisplayedItems": 10,
                  "type": "object-table-agents",
                  "tableData": "agents",
                  "tableHeader": "header-current-agent-activity",
                  "tableTemplate": "table-call-by-activity",
                  "dataUrl": "/agents",
                  "params": {
                    "groups": [
                      "DE_Webshop",
                      "DE_Platforms",
                      "HU_Webshop",
                      "HU_Platforms"
                    ]
                  }
                }
              ]
            }
          ]
        }
      ]
    },
    {
      "label": "DE_Webshop",
      "display": true,
      "class": "row-y250",
      "widgets": [
        {
          "type": "widget.group",
          "label": {
            "text": "Today's call data DE_Webshop"
          },
          "rows": [
            {
              "widgets": [
                {
                  "label": {
                    "text": "Offered"
                  },
                  "type": "widget.number",
                  "metric": "queues.calls.total",
                  "params": {
                    "queues": [
                      "650bd0323c984184b9bc70dfd267c5d6"
                    ]
                  }
                },
                {
                  "label": {
                    "text": "Accepted"
                  },
                  "type": "widget.number",
                  "metric": "calls.inbound.connected",
                  "params": {
                    "queues": [
                      "650bd0323c984184b9bc70dfd267c5d6"
                    ]
                  }
                },
                {
                  "label": {
                    "text": "Missed"
                  },
                  "type": "widget.number",
                  "metric": "calls.inbound.missed.queued",
                  "params": {
                    "queues": [
                      "650bd0323c984184b9bc70dfd267c5d6"
                    ]
                  }
                },
                {
                  "label": {
                    "text": "Avg. wait time"
                  },
                  "type": "widget.msToS",
                  "metric": "queues.wait-time.avg",
                  "params": {
                    "queues": [
                      "650bd0323c984184b9bc70dfd267c5d6"
                    ],
                    "bridgedOnly": false
                  }
                },
                {
                   "label": {
                     "text": "Abandon rate"
                   },
                   "type": "widget.percentage",
                   "metric": "abandon.value",
                   "params": {
                     "queues": [
                       "650bd0323c984184b9bc70dfd267c5d6"
                     ]
                   }
                 },
                 {
                   "label": {
                     "text": "Service-Level"
                   },
                   "type": "widget.percentage",
                   "metric": "service-level.value",
                   "params": {
                     "queues": [
                       "650bd0323c984184b9bc70dfd267c5d6"
                     ],
                     "bridgedOnly": true,
                     "lessThan": 61,
                     "queueOnly": true
                   }
                 },
                 {
                  "label": {
                    "text": "Longest waiting"
                  },
                  "type": "widget.sToMMSS",
                  "metric": "queues.calls.waiting.total",
                  "params": {
                    "queues": [
                      "650bd0323c984184b9bc70dfd267c5d6"
                    ]
                  }
                }
              ]
            }
          ]
        },
        {
          "type": "widget.group",
          "label": {
            "text": "Average call data on DE_Webshop"
          },
          "rows": [
            {
              "widgets": [
                {
                  "label": {
                    "text": "Talk Time"
                  },
                  "type": "widget.msToS",
                  "metric": "queues.talk-time.avg",
                  "params": {
                    "queues": [
                      "650bd0323c984184b9bc70dfd267c5d6"
                    ]
                  }
                },
                {
                  "label": {
                    "text": "AHT"
                  },
                  "type": "widget.msToS",
                  "metric": "queues.handle-time.avg",
                  "params": {
                    "queues": [
                      "650bd0323c984184b9bc70dfd267c5d6"
                    ]
                  }
                },
                {
                  "label": {
                    "text": "Avg. wrap",
                    "class": "row-y100"
                  },
                  "type": "widget.msToS",
                  "metric": "queues.wrapup.avg",
                  "params": {
                    "queues": [
                      "650bd0323c984184b9bc70dfd267c5d6"
                    ]
                  }
                },
                {
                  "label": {
                    "text": "Avg. hold time",
                    "class": "row-y100"
                  },
                  "type": "widget.msToS",
                  "metric": "calls.hold.avg",
                  "params": {
                    "queues": [
                      "650bd0323c984184b9bc70dfd267c5d6"
                    ],
                    "heldCallsOnly": false
                  }
                }
              ]
            }
          ]
        },
        {
          "type": "widget.group",
          "rows": [
            {
              "display": true,
              "class": "row-y100",
              "widgets": [
                {
                  "module": "agent.status",
                  "settings": {
                    "push": false,
                    "groups": [
                      "DE_Webshop"
                    ]
                  }
                }
              ]
            }
          ]
        },
        {
          "type": "widget.group",
          "label": {
            "text": "Active agents DE_Webshop"
          },
          "rows": [
            {
              "widgets": [
                {
                  "maxDisplayedItems": 10,
                  "type": "object-table-agents",
                  "tableData": "agents",
                  "tableHeader": "header-current-agent-activity",
                  "tableTemplate": "table-call-by-activity",
                  "dataUrl": "/agents",
                  "params": {
                    "groups": [
                      "DE_Webshop"
                    ]
                  }
                }
              ]
            }
          ]
        }
      ]
    },
    {
      "label": "DE_Platforms",
      "display": true,
      "class": "row-y250",
      "widgets": [
        {
          "type": "widget.group",
          "label": {
            "text": "Today's call data DE_Platforms"
          },
          "rows": [
            {
              "widgets": [
                {
                  "label": {
                    "text": "Offered"
                  },
                  "type": "widget.number",
                  "metric": "queues.calls.total",
                  "params": {
                    "queues": [
                      "01b1f852208049d793f38fe020a471b8"
                    ]
                  }
                },
                {
                  "label": {
                    "text": "Accepted"
                  },
                  "type": "widget.number",
                  "metric": "calls.inbound.connected",
                  "params": {
                    "queues": [
                      "01b1f852208049d793f38fe020a471b8"
                    ]
                  }
                },
                {
                  "label": {
                    "text": "Missed"
                  },
                  "type": "widget.number",
                  "metric": "calls.inbound.missed.queued",
                  "params": {
                    "queues": [
                      "01b1f852208049d793f38fe020a471b8"
                    ]
                  }
                },
                {
                  "label": {
                    "text": "Avg. wait time"
                  },
                  "type": "widget.msToS",
                  "metric": "queues.wait-time.avg",
                  "params": {
                    "queues": [
                      "01b1f852208049d793f38fe020a471b8"
                    ],
                    "bridgedOnly": false
                  }
                },
                {
                  "label": {
                    "text": "Abandon rate"
                  },
                  "type": "widget.percentage",
                  "metric": "abandon.value",
                  "params": {
                    "queues": [
                      "01b1f852208049d793f38fe020a471b8"
                    ]
                  }
                },
                {
                  "label": {
                    "text": "Service-Level"
                  },
                  "type": "widget.percentage",
                  "metric": "service-level.value",
                  "params": {
                    "queues": [
                      "01b1f852208049d793f38fe020a471b8"
                    ],
                    "bridgedOnly": true,
                    "lessThan": 61,
                    "queueOnly": true
                  }
                },
                {
                  "label": {
                    "text": "Longest waiting"
                  },
                  "type": "widget.sToMMSS",
                  "metric": "queues.calls.waiting.total",
                  "params": {
                    "queues": [
                      "01b1f852208049d793f38fe020a471b8"
                    ]
                  }
                }
              ]
            }
          ]
        },
        {
          "type": "widget.group",
          "label": {
            "text": "Average call data on DE_Platforms"
          },
          "rows": [
            {
              "widgets": [
                {
                  "label": {
                    "text": "Talk Time"
                  },
                  "type": "widget.msToS",
                  "metric": "queues.talk-time.avg",
                  "params": {
                    "queues": [
                      "01b1f852208049d793f38fe020a471b8"
                    ]
                  }
                },
                {
                  "label": {
                    "text": "AHT"
                  },
                  "type": "widget.msToS",
                  "metric": "queues.handle-time.avg",
                  "params": {
                    "queues": [
                      "01b1f852208049d793f38fe020a471b8"
                    ]
                  }
                },
                {
                  "label": {
                    "text": "Avg. wrap",
                    "class": "row-y100"
                  },
                  "type": "widget.msToS",
                  "metric": "queues.wrapup.avg",
                  "params": {
                    "queues": [
                      "01b1f852208049d793f38fe020a471b8"
                    ]
                  }
                },
                {
                  "label": {
                    "text": "Avg. hold time",
                    "class": "row-y100"
                  },
                  "type": "widget.msToS",
                  "metric": "calls.hold.avg",
                  "params": {
                    "queues": [
                      "01b1f852208049d793f38fe020a471b8"
                    ],
                    "heldCallsOnly": false
                  }
                }
              ]
            }
          ]
        },
        {
          "type": "widget.group",
          "rows": [
            {
              "display": true,
              "class": "row-y100",
              "widgets": [
                {
                  "module": "agent.status",
                  "settings": {
                    "push": false,
                    "groups": [
                      "DE_Platforms"
                    ]
                  }
                }
              ]
            }
          ]
        },
        {
          "type": "widget.group",
          "label": {
            "text": "Active agents DE_Platforms"
          },
          "rows": [
            {
              "widgets": [
                {
                  "maxDisplayedItems": 10,
                  "type": "object-table-agents",
                  "tableData": "agents",
                  "tableHeader": "header-current-agent-activity",
                  "tableTemplate": "table-call-by-activity",
                  "dataUrl": "/agents",
                  "params": {
                    "groups": [
                      "DE_Platforms"
                    ]
                  }
                }
              ]
            }
          ]
        }
      ]
    },
    {
      "label": "HU_Webshop",
      "display": true,
      "class": "row-y250",
      "widgets": [
        {
          "type": "widget.group",
          "label": {
            "text": "Today's call data HU_Webshop"
          },
          "rows": [
            {
              "widgets": [
                {
                  "label": {
                    "text": "Offered"
                  },
                  "type": "widget.number",
                  "metric": "queues.calls.total",
                  "params": {
                    "queues": [
                      "2758dede2d4b4ae892d8b3c27ad089fb"
                    ]
                  }
                },
                {
                  "label": {
                    "text": "Accepted"
                  },
                  "type": "widget.number",
                  "metric": "calls.inbound.connected",
                  "params": {
                    "queues": [
                      "2758dede2d4b4ae892d8b3c27ad089fb"
                    ]
                  }
                },
                {
                  "label": {
                    "text": "Missed"
                  },
                  "type": "widget.number",
                  "metric": "calls.inbound.missed.queued",
                  "params": {
                    "queues": [
                      "2758dede2d4b4ae892d8b3c27ad089fb"
                    ]
                  }
                },
                {
                  "label": {
                    "text": "Avg. wait time"
                  },
                  "type": "widget.msToS",
                  "metric": "queues.wait-time.avg",
                  "params": {
                    "queues": [
                      "2758dede2d4b4ae892d8b3c27ad089fb"
                    ],
                    "bridgedOnly": false
                  }
                },
                {
                  "label": {
                    "text": "Abandon rate"
                  },
                  "type": "widget.percentage",
                  "metric": "abandon.value",
                  "params": {
                    "queues": [
                      "2758dede2d4b4ae892d8b3c27ad089fb"
                    ]
                  }
                },
                {
                  "label": {
                    "text": "Service-Level"
                  },
                  "type": "widget.percentage",
                  "metric": "service-level.value",
                  "params": {
                    "queues": [
                      "2758dede2d4b4ae892d8b3c27ad089fb"
                    ],
                    "bridgedOnly": true,
                    "lessThan": 61,
                    "queueOnly": true
                  }
                },
                {
                  "label": {
                    "text": "Longest waiting"
                  },
                  "type": "widget.sToMMSS",
                  "metric": "queues.calls.waiting.total",
                  "params": {
                    "queues": [
                      "2758dede2d4b4ae892d8b3c27ad089fb"
                    ]
                  }
                }
              ]
            }
          ]
        },
        {
          "type": "widget.group",
          "label": {
            "text": "Average call data on HU_Webshop"
          },
          "rows": [
            {
              "widgets": [
                {
                  "label": {
                    "text": "Talk Time"
                  },
                  "type": "widget.msToS",
                  "metric": "queues.talk-time.avg",
                  "params": {
                    "queues": [
                      "2758dede2d4b4ae892d8b3c27ad089fb"
                    ]
                  }
                },
                {
                  "label": {
                    "text": "AHT"
                  },
                  "type": "widget.msToS",
                  "metric": "queues.handle-time.avg",
                  "params": {
                    "queues": [
                      "2758dede2d4b4ae892d8b3c27ad089fb"
                    ]
                  }
                },
                {
                  "label": {
                    "text": "Avg. wrap",
                    "class": "row-y100"
                  },
                  "type": "widget.msToS",
                  "metric": "queues.wrapup.avg",
                  "params": {
                    "queues": [
                      "2758dede2d4b4ae892d8b3c27ad089fb"
                    ]
                  }
                },
                {
                  "label": {
                    "text": "Avg. hold time",
                    "class": "row-y100"
                  },
                  "type": "widget.msToS",
                  "metric": "calls.hold.avg",
                  "params": {
                    "queues": [
                      "2758dede2d4b4ae892d8b3c27ad089fb"
                    ],
                    "heldCallsOnly": false
                  }
                }
              ]
            }
          ]
        },
        {
          "type": "widget.group",
          "rows": [
            {
              "display": true,
              "class": "row-y100",
              "widgets": [
                {
                  "module": "agent.status",
                  "settings": {
                    "push": false,
                    "groups": [
                      "HU_Webshop"
                    ]
                  }
                }
              ]
            }
          ]
        },
        {
          "type": "widget.group",
          "label": {
            "text": "Active agents HU_Webshop"
          },
          "rows": [
            {
              "widgets": [
                {
                  "maxDisplayedItems": 10,
                  "type": "object-table-agents",
                  "tableData": "agents",
                  "tableHeader": "header-current-agent-activity",
                  "tableTemplate": "table-call-by-activity",
                  "dataUrl": "/agents",
                  "params": {
                    "groups": [
                      "HU_Webshop"
                    ]
                  }
                }
              ]
            }
          ]
        }
      ]
    },
    {
      "label": "HU_Platforms",
      "display": true,
      "class": "row-y250",
      "widgets": [
        {
          "type": "widget.group",
          "label": {
            "text": "Today's call data HU_Platforms"
          },
          "rows": [
            {
              "widgets": [
                {
                  "label": {
                    "text": "Offered"
                  },
                  "type": "widget.number",
                  "metric": "queues.calls.total",
                  "params": {
                    "queues": [
                      "01e9780c9e7a4738bb603fb11e063ed2"
                    ]
                  }
                },
                {
                  "label": {
                    "text": "Accepted"
                  },
                  "type": "widget.number",
                  "metric": "calls.inbound.connected",
                  "params": {
                    "queues": [
                      "01e9780c9e7a4738bb603fb11e063ed2"
                    ]
                  }
                },
                {
                  "label": {
                    "text": "Missed"
                  },
                  "type": "widget.number",
                  "metric": "calls.inbound.missed.queued",
                  "params": {
                    "queues": [
                      "01e9780c9e7a4738bb603fb11e063ed2"
                    ]
                  }
                },
                {
                  "label": {
                    "text": "Avg. wait time"
                  },
                  "type": "widget.msToS",
                  "metric": "queues.wait-time.avg",
                  "params": {
                    "queues": [
                      "01e9780c9e7a4738bb603fb11e063ed2"
                    ],
                    "bridgedOnly": false
                  }
                },
                {
                  "label": {
                    "text": "Abandon rate"
                  },
                  "type": "widget.percentage",
                  "metric": "abandon.value",
                  "params": {
                    "queues": [
                      "01e9780c9e7a4738bb603fb11e063ed2"
                    ]
                  }
                },
                {
                  "label": {
                    "text": "Service-Level"
                  },
                  "type": "widget.percentage",
                  "metric": "service-level.value",
                  "params": {
                    "queues": [
                      "01e9780c9e7a4738bb603fb11e063ed2"
                    ],
                    "bridgedOnly": true,
                    "lessThan": 61,
                    "queueOnly": true
                  }
                },
                {
                  "label": {
                    "text": "Longest waiting"
                  },
                  "type": "widget.sToMMSS",
                  "metric": "queues.calls.waiting.total",
                  "params": {
                    "queues": [
                      "01e9780c9e7a4738bb603fb11e063ed2"
                    ]
                  }
                }
              ]
            }
          ]
        },
        {
          "type": "widget.group",
          "label": {
            "text": "Average call data on HU_Platforms"
          },
          "rows": [
            {
              "widgets": [
                {
                  "label": {
                    "text": "Talk Time"
                  },
                  "type": "widget.msToS",
                  "metric": "queues.talk-time.avg",
                  "params": {
                    "queues": [
                      "01e9780c9e7a4738bb603fb11e063ed2"
                    ]
                  }
                },
                {
                  "label": {
                    "text": "AHT"
                  },
                  "type": "widget.msToS",
                  "metric": "queues.handle-time.avg",
                  "params": {
                    "queues": [
                      "01e9780c9e7a4738bb603fb11e063ed2"
                    ]
                  }
                },
                {
                  "label": {
                    "text": "Avg. wrap",
                    "class": "row-y100"
                  },
                  "type": "widget.msToS",
                  "metric": "queues.wrapup.avg",
                  "params": {
                    "queues": [
                      "01e9780c9e7a4738bb603fb11e063ed2"
                    ]
                  }
                },
                {
                  "label": {
                    "text": "Avg. hold time",
                    "class": "row-y100"
                  },
                  "type": "widget.msToS",
                  "metric": "calls.hold.avg",
                  "params": {
                    "queues": [
                      "01e9780c9e7a4738bb603fb11e063ed2"
                    ],
                    "heldCallsOnly": false
                  }
                }
              ]
            }
          ]
        },
        {
          "type": "widget.group",
          "rows": [
            {
              "display": true,
              "class": "row-y100",
              "widgets": [
                {
                  "module": "agent.status",
                  "settings": {
                    "push": false,
                    "groups": [
                      "HU_Platforms"
                    ]
                  }
                }
              ]
            }
          ]
        },
        {
          "type": "widget.group",
          "label": {
            "text": "Active agents HU_Platforms"
          },
          "rows": [
            {
              "widgets": [
                {
                  "maxDisplayedItems": 10,
                  "type": "object-table-agents",
                  "tableData": "agents",
                  "tableHeader": "header-current-agent-activity",
                  "tableTemplate": "table-call-by-activity",
                  "dataUrl": "/agents",
                  "params": {
                    "groups": [
                      "HU_Platforms"
                    ]
                  }
                }
              ]
            }
          ]
        }
      ]
    }
  ]
}