{
  "type": "dashboard",
  "label": {
    "text": "Real-time Dashboard"
  },
  "rows": [
    {
      "label": "Right now",
      "display": true,
      "class": "row-y100",
      "widgets": [
        {
          "module": "agent.status",
          "settings": {
            "push": false
          }
        },
        {
          "module": "call.status",
          "settings": {
            "type": "inbound",
            "push": false
          }
        },
        {
          "module": "call.status",
          "settings": {
            "type": "outbound",
            "push": false
          }
        }
      ]
    },
     {
      "label": "Sales",
      "display": true,
      "class": "row-y200",
      "widgets": [
        {
          "module": "agent.status",
          "settings": {
            "push": false,
            "label": "Sales Agents",
            "tags": ["sales"]
          }
        },
        {
          "module": "queue.summary",
          "settings": {
            "queues": ["9ebae3a1-abdb-4b32-80f3-349e2a1c2114"]
          }
        }
      ]
    },
    {
      "class": "row-y400",
      "display": true,
      "widgets": [
        {
          "type": "widget.group",
          "label": {
            "text": "Inbound right now - Categorized"
          },
          "rows": [
            {
              "widgets": [
                {
                  "label": {
                    "text": "Inbound right now - Categorized"
                  },
                  "type": "bar-chart",
                  "metric": "queues",
                  "dataUrl": "/metrics/queues?enabled=true"
                }
              ]
            }
          ]
        },
        {
          "type": "widget.group",
          "label": {
            "text": "Current agent activity"
          },
          "rows": [
            {
              "widgets": [
                {
                  "maxDisplayedItems": 10,
                  "type": "object-table-agents",
                  "tableData": "agents",
                  "tableHeader": "header-current-agent-activity",
                  "tableTemplate": "table-call-by-activity",
                  "dataUrl": "/agents"
                }
              ]
            }
          ]
        },
        {
          "type": "widget.group",
          "label": {
            "text": "Current call activity"
          },
          "class": "activity-calls",
          "rows": [
            {
              "widgets": [
                {
                  "maxDisplayedItems": 10,
                  "type": "object-table-calls",
                  "tableData": "calls",
                  "tableHeader": "header-current-call-activity",
                  "tableTemplate": "table-call-by-agent",
                  "dataUrl": "/calls/reporting?filters.domain=external&filters.state=in_progress&filters.state=queued&filters.state=ringing&filters.state=bridged&filters.state=scheduled"
                }
              ]
            }
          ]
        }
      ]
    },
    {
      "class": "row-y300",
      "display": true,
      "widgets": [
        {
          "module": "call.pie",
          "settings": {
            "type": "calls.inbound"
          }
        },
        {
          "module": "call.pie",
          "settings": {
            "type": "calls.inbound.missed"
          }
        },
        {
          "module": "call.pie",
          "settings": {
            "type": "calls.outbound"
          }
        }
      ]
    }
  ]
}